<svg width="200" height="100" viewBox="0 0 200 100" fill="none" xmlns="http://www.w3.org/2000/svg">
<path d="M64.73 45.7098C65.09 45.7098 65.21 45.8398 65.21 46.1898V54.1098H69.28C69.63 54.1098 69.76 54.2398 69.76 54.5898V55.2898C69.76 55.6398 69.63 55.7698 69.28 55.7698H63.92C63.57 55.7698 63.43 55.6398 63.43 55.2898V46.1898C63.43 45.8398 63.57 45.7098 63.92 45.7098H64.73Z" fill="#16191C"/>
<path d="M73.31 49.1998C73.31 46.8898 74.77 45.4998 77.31 45.4998C79.85 45.4998 81.31 46.8898 81.31 49.1998V52.2798C81.31 54.5898 79.84 55.9798 77.31 55.9798C74.78 55.9798 73.31 54.5898 73.31 52.2798V49.1998ZM79.63 49.1998C79.63 47.8998 78.82 47.1998 77.36 47.1998C75.9 47.1998 75.1 47.9098 75.1 49.1998V52.2998C75.1 53.6098 75.9 54.2998 77.36 54.2998C78.82 54.2998 79.63 53.5798 79.63 52.2998V49.1998Z" fill="#16191C"/>
<path d="M93.22 50.2598C93.61 50.2598 93.7 50.3898 93.7 50.7398V52.6398C93.7105 53.0873 93.6208 53.5315 93.4374 53.9399C93.254 54.3483 92.9815 54.7104 92.64 54.9998C91.7917 55.6753 90.7221 56.0104 89.64 55.9398C87.05 55.9398 85.64 54.5498 85.64 52.2398V49.1398C85.64 46.8598 87.1 45.4598 89.64 45.4598C91.64 45.4598 92.94 46.2498 93.49 47.8298C93.5207 47.8891 93.5372 47.9549 93.5381 48.0217C93.5391 48.0886 93.5244 48.1547 93.4952 48.2149C93.4661 48.2751 93.4234 48.3277 93.3704 48.3684C93.3174 48.4092 93.2556 48.4371 93.19 48.4498L92.41 48.7198C92.07 48.8398 91.93 48.7698 91.81 48.4198C91.6443 47.9926 91.341 47.6329 90.948 47.3975C90.555 47.162 90.0947 47.0643 89.64 47.1198C88.17 47.1198 87.37 47.8298 87.37 49.1198V52.2998C87.37 53.6098 88.18 54.2998 89.64 54.2998C91.1 54.2998 92 53.6298 92 52.6498V51.9098H89.83C89.47 51.9098 89.34 51.7698 89.34 51.4198V50.7398C89.34 50.3898 89.47 50.2598 89.83 50.2598H93.22Z" fill="#16191C"/>
<path d="M97.83 49.1998C97.83 46.8898 99.29 45.4998 101.83 45.4998C104.37 45.4998 105.83 46.8898 105.83 49.1998V52.2798C105.83 54.5898 104.36 55.9798 101.83 55.9798C99.3 55.9798 97.83 54.5898 97.83 52.2798V49.1998ZM104.14 49.1998C104.14 47.8998 103.33 47.1998 101.88 47.1998C100.43 47.1998 99.61 47.9098 99.61 49.1998V52.2998C99.61 53.6098 100.42 54.2998 101.88 54.2998C103.34 54.2998 104.14 53.5798 104.14 52.2998V49.1998Z" fill="#16191C"/>
<path d="M110.54 45.9998C110.54 45.7798 110.61 45.7098 110.83 45.7098H111.29C111.51 45.7098 111.56 45.7798 111.56 45.9998V55.4798C111.56 55.6998 111.56 55.7698 111.29 55.7698H110.83C110.61 55.7698 110.54 55.6998 110.54 55.4798V45.9998Z" fill="#16191C"/>
<path d="M120.67 45.7098C121.503 45.7098 122.301 46.0406 122.89 46.6295C123.479 47.2183 123.81 48.017 123.81 48.8498C123.81 49.6825 123.479 50.4812 122.89 51.0701C122.301 51.6589 121.503 51.9898 120.67 51.9898H117.67V55.4798C117.67 55.6998 117.62 55.7698 117.41 55.7698H116.94C116.73 55.7698 116.65 55.6998 116.65 55.4798V45.9998C116.65 45.7798 116.73 45.7098 116.94 45.7098H120.67ZM120.58 50.9998C120.866 50.9998 121.15 50.9434 121.414 50.8338C121.679 50.7243 121.919 50.5637 122.121 50.3613C122.324 50.1588 122.484 49.9185 122.594 49.654C122.704 49.3895 122.76 49.106 122.76 48.8198C122.76 48.5335 122.704 48.25 122.594 47.9855C122.484 47.721 122.324 47.4807 122.121 47.2783C121.919 47.0758 121.679 46.9153 121.414 46.8057C121.15 46.6962 120.866 46.6398 120.58 46.6398H117.58V50.9998H120.58Z" fill="#16191C"/>
<path d="M131.62 45.5098C132.392 45.4246 133.171 45.5907 133.841 45.9834C134.511 46.3761 135.037 46.9745 135.34 47.6898C135.42 47.8498 135.34 47.9798 135.18 48.0598L134.74 48.2598C134.56 48.3298 134.49 48.3198 134.38 48.1298C134.153 47.5989 133.764 47.154 133.268 46.8591C132.772 46.5643 132.194 46.435 131.62 46.4898C129.93 46.4898 129.01 47.1598 129.01 48.3598C129 48.7265 129.123 49.0844 129.357 49.3675C129.59 49.6505 129.918 49.8396 130.28 49.8998C130.818 50.0752 131.375 50.1827 131.94 50.2198C132.623 50.2562 133.297 50.3944 133.94 50.6298C134.433 50.7856 134.857 51.1063 135.141 51.5379C135.425 51.9695 135.552 52.4857 135.5 52.9998C135.5 54.8698 134.14 55.9998 131.64 55.9998C130.82 56.0936 129.993 55.9036 129.296 55.4614C128.599 55.0192 128.074 54.3516 127.81 53.5698C127.792 53.5341 127.783 53.495 127.782 53.4553C127.781 53.4155 127.789 53.376 127.805 53.3397C127.822 53.3034 127.846 53.2712 127.876 53.2452C127.906 53.2193 127.942 53.2004 127.98 53.1898L128.42 53.0298C128.455 53.0156 128.492 53.0088 128.529 53.0098C128.567 53.0108 128.604 53.0196 128.637 53.0356C128.671 53.0516 128.701 53.0744 128.726 53.1027C128.75 53.1309 128.769 53.164 128.78 53.1998C129.004 53.7647 129.401 54.2437 129.916 54.5673C130.43 54.891 131.034 55.0424 131.64 54.9998C133.53 54.9998 134.46 54.3398 134.46 52.9998C134.478 52.6475 134.37 52.3005 134.155 52.0203C133.941 51.7402 133.635 51.5451 133.29 51.4698C132.773 51.3154 132.239 51.2215 131.7 51.1898L130.62 51.0498C130.282 50.978 129.948 50.8879 129.62 50.7798C129.296 50.6819 128.994 50.5223 128.73 50.3098C128.465 50.0695 128.256 49.7739 128.117 49.4438C127.979 49.1138 127.915 48.7573 127.93 48.3998C128 46.6498 129.31 45.5098 131.62 45.5098Z" fill="#16191C"/>
<path d="M140.89 52.3498C140.932 53.0569 141.243 53.7212 141.759 54.2069C142.275 54.6926 142.957 54.9631 143.665 54.9631C144.373 54.9631 145.055 54.6926 145.571 54.2069C146.087 53.7212 146.397 53.0569 146.44 52.3498V45.9998C146.44 45.7798 146.51 45.7098 146.73 45.7098H147.19C147.41 45.7098 147.48 45.7798 147.48 45.9998V52.3398C147.48 54.6098 146.14 55.9798 143.67 55.9798C141.2 55.9798 139.86 54.6098 139.86 52.3398V45.9998C139.86 45.7798 139.93 45.7098 140.14 45.7098H140.61C140.82 45.7098 140.89 45.7798 140.89 45.9998V52.3498Z" fill="#16191C"/>
<path d="M161.28 45.7098C161.5 45.7098 161.57 45.7798 161.57 45.9998V55.4798C161.57 55.6998 161.5 55.7698 161.28 55.7698H160.86C160.65 55.7698 160.58 55.6998 160.58 55.4798V49.7098C160.58 48.8702 160.637 48.0316 160.75 47.1998H160.69C160.378 47.9605 160.013 48.6989 159.6 49.4098L157.45 53.1998C157.424 53.2655 157.378 53.3217 157.319 53.361C157.26 53.4003 157.191 53.4208 157.12 53.4198H156.84C156.768 53.4201 156.698 53.3995 156.637 53.3604C156.577 53.3213 156.529 53.2655 156.5 53.1998L154.32 49.3698C153.933 48.669 153.599 47.9403 153.32 47.1898H153.26C153.362 48.0293 153.416 48.874 153.42 49.7198V55.4798C153.42 55.6998 153.35 55.7698 153.13 55.7698H152.74C152.52 55.7698 152.45 55.6998 152.45 55.4798V45.9998C152.45 45.7798 152.52 45.7098 152.74 45.7098H153.1C153.182 45.7021 153.265 45.7201 153.336 45.7613C153.408 45.8025 153.465 45.8648 153.5 45.9398L157 52.1598L160.48 45.9998C160.59 45.7898 160.65 45.7598 160.87 45.7598L161.28 45.7098Z" fill="#16191C"/>
<path d="M46.94 53.5498V60.7798C46.94 61.0569 46.8299 61.3227 46.6339 61.5187C46.4379 61.7147 46.1721 61.8248 45.895 61.8248C45.6178 61.8248 45.352 61.7147 45.156 61.5187C44.9601 61.3227 44.85 61.0569 44.85 60.7798V53.5598C45.1409 53.7722 45.4898 53.8909 45.85 53.8998C46.2426 53.911 46.6273 53.7875 46.94 53.5498ZM55.84 51.4598C55.5747 51.4598 55.3204 51.5651 55.1329 51.7527C54.9453 51.9402 54.84 52.1945 54.84 52.4598V53.7198C54.84 53.9969 54.9501 54.2627 55.146 54.4587C55.342 54.6547 55.6078 54.7648 55.885 54.7648C56.1621 54.7648 56.4279 54.6547 56.6239 54.4587C56.8199 54.2627 56.93 53.9969 56.93 53.7198V52.5098C56.9377 52.3664 56.9146 52.223 56.862 52.0894C56.8094 51.9557 56.7286 51.835 56.6252 51.7354C56.5218 51.6358 56.3981 51.5596 56.2626 51.512C56.1271 51.4644 55.983 51.4466 55.84 51.4598ZM42.58 56.2898C42.2201 56.279 41.8718 56.1605 41.58 55.9498V63.1998C41.58 63.4782 41.6906 63.7453 41.8875 63.9422C42.0844 64.1391 42.3515 64.2498 42.63 64.2498C42.9084 64.2498 43.1755 64.1391 43.3724 63.9422C43.5693 63.7453 43.68 63.4782 43.68 63.1998V55.9998C43.3534 56.2108 42.9681 56.3124 42.58 56.2898ZM52.58 49.2898C52.4445 49.283 52.3091 49.3038 52.1819 49.351C52.0548 49.3983 51.9385 49.4708 51.8403 49.5644C51.7421 49.6579 51.6639 49.7705 51.6106 49.8952C51.5572 50.0199 51.5298 50.1541 51.53 50.2898V55.8598C51.53 56.1382 51.6406 56.4053 51.8375 56.6022C52.0344 56.7991 52.3015 56.9098 52.58 56.9098C52.8584 56.9098 53.1255 56.7991 53.3224 56.6022C53.5193 56.4053 53.63 56.1382 53.63 55.8598V50.3598C53.6379 50.2155 53.6145 50.0711 53.5614 49.9367C53.5082 49.8023 53.4265 49.681 53.322 49.5812C53.2174 49.4814 53.0925 49.4055 52.9557 49.3586C52.819 49.3118 52.6737 49.2951 52.53 49.3098L52.58 49.2898ZM49.26 51.4298C48.8833 51.4272 48.5166 51.3085 48.21 51.0898V58.3598C48.21 58.6382 48.3206 58.9053 48.5175 59.1022C48.7144 59.2991 48.9815 59.4098 49.26 59.4098C49.5384 59.4098 49.8055 59.2991 50.0024 59.1022C50.1993 58.9053 50.31 58.6382 50.31 58.3598V51.0998C49.9927 51.3361 49.6054 51.4593 49.21 51.4498L49.26 51.4298ZM40.31 56.9998V36.6898C40.3073 36.4422 40.2071 36.2057 40.0311 36.0315C39.8551 35.8574 39.6175 35.7598 39.37 35.7598H39.15C38.9024 35.7598 38.6648 35.8574 38.4888 36.0315C38.3128 36.2057 38.2126 36.4422 38.21 36.6898V56.9998C38.21 57.2491 38.309 57.4882 38.4853 57.6644C38.6616 57.8407 38.9007 57.9398 39.15 57.9398H39.37C39.6193 57.9398 39.8584 57.8407 40.0346 57.6644C40.2109 57.4882 40.31 57.2491 40.31 56.9998ZM42.69 55.5198H42.47C42.2207 55.5198 41.9816 55.4207 41.8053 55.2444C41.629 55.0682 41.53 54.8291 41.53 54.5798V39.1098C41.5326 38.8622 41.6328 38.6257 41.8088 38.4515C41.9848 38.2774 42.2224 38.1798 42.47 38.1798H42.69C42.9375 38.1798 43.1751 38.2774 43.3511 38.4515C43.5271 38.6257 43.6273 38.8622 43.63 39.1098V54.5998C43.63 54.8491 43.5309 55.0882 43.3546 55.2644C43.1784 55.4407 42.9393 55.5398 42.69 55.5398V55.5198ZM46 53.1398H45.77C45.5233 53.1398 45.2868 53.0418 45.1124 52.8674C44.9379 52.693 44.84 52.4564 44.84 52.2098V41.5098C44.8386 41.3868 44.8617 41.2648 44.9079 41.1508C44.954 41.0368 45.0223 40.9331 45.1088 40.8457C45.1953 40.7583 45.2982 40.6889 45.4117 40.6415C45.5252 40.5941 45.647 40.5698 45.77 40.5698H46C46.2475 40.5724 46.4841 40.6726 46.6582 40.8486C46.8323 41.0246 46.93 41.2622 46.93 41.5098V52.2098C46.93 52.4564 46.832 52.693 46.6576 52.8674C46.4832 53.0418 46.2466 53.1398 46 53.1398ZM49.1 50.6898C48.8524 50.6898 48.6148 50.5921 48.4388 50.418C48.2628 50.2439 48.1626 50.0073 48.16 49.7598V43.9998C48.1517 43.8714 48.17 43.7427 48.2135 43.6216C48.2571 43.5005 48.325 43.3897 48.4131 43.296C48.5013 43.2022 48.6077 43.1275 48.7258 43.0766C48.844 43.0257 48.9713 42.9995 49.1 42.9998H49.32C49.5693 42.9998 49.8084 43.0988 49.9846 43.2751C50.1609 43.4514 50.26 43.6905 50.26 43.9398V49.7398C50.2613 49.8641 50.2379 49.9874 50.1913 50.1026C50.1447 50.2178 50.0756 50.3226 49.9882 50.4109C49.9008 50.4993 49.7967 50.5694 49.682 50.6173C49.5673 50.6651 49.4443 50.6898 49.32 50.6898H49.1ZM52.41 48.5398C52.1607 48.5398 51.9216 48.4407 51.7453 48.2644C51.569 48.0882 51.47 47.8491 51.47 47.5998V46.1098C51.4726 45.8622 51.5728 45.6257 51.7488 45.4515C51.9248 45.2774 52.1624 45.1798 52.41 45.1798H52.63C52.8775 45.1798 53.1151 45.2774 53.2911 45.4515C53.4671 45.6257 53.5673 45.8622 53.57 46.1098V47.5998C53.57 47.8473 53.4723 48.0849 53.2982 48.2609C53.1241 48.4369 52.8875 48.5371 52.64 48.5398H52.41Z" fill="#16191C"/>
</svg>
