<svg width="200" height="100" viewBox="0 0 200 100" fill="none" xmlns="http://www.w3.org/2000/svg">
<path d="M78.88 57.3903C78.2853 57.4225 77.6969 57.2534 77.21 56.9103C77.0066 56.7595 76.8429 56.5614 76.7331 56.3331C76.6234 56.1049 76.5708 55.8534 76.58 55.6003V46.3303C76.5752 46.291 76.5793 46.2512 76.5922 46.2138C76.605 46.1764 76.6263 46.1424 76.6542 46.1144C76.6822 46.0865 76.7162 46.0653 76.7536 46.0524C76.791 46.0396 76.8308 46.0354 76.87 46.0403H78.55C78.74 46.0403 78.83 46.1403 78.83 46.3303V54.8803C78.83 55.2603 79 55.4503 79.35 55.4503C79.4984 55.4564 79.6468 55.4395 79.79 55.4003C79.99 55.4003 80.1 55.4603 80.11 55.6403L80.26 56.8903C80.2673 56.9267 80.2666 56.9643 80.258 57.0004C80.2495 57.0366 80.2333 57.0705 80.2106 57.0999C80.1878 57.1292 80.1591 57.1534 80.1262 57.1707C80.0933 57.188 80.0571 57.1981 80.02 57.2003C79.6521 57.3218 79.2675 57.3859 78.88 57.3903Z" fill="#16191C"/>
<path d="M88.3301 56.3203C87.4859 57.0177 86.4251 57.3993 85.3301 57.3993C84.235 57.3993 83.1742 57.0177 82.3301 56.3203C81.5881 55.5712 81.1718 54.5596 81.1718 53.5053C81.1718 52.451 81.5881 51.4393 82.3301 50.6903C83.1759 49.9964 84.236 49.6172 85.3301 49.6172C86.4241 49.6172 87.4842 49.9964 88.3301 50.6903C89.0549 51.4462 89.4596 52.453 89.4596 53.5003C89.4596 54.5476 89.0549 55.5543 88.3301 56.3103V56.3203ZM83.9101 55.0003C84.3018 55.3551 84.8115 55.5517 85.34 55.5517C85.8686 55.5517 86.3783 55.3551 86.77 55.0003C87.1246 54.5926 87.3199 54.0705 87.3199 53.5303C87.3199 52.99 87.1246 52.4679 86.77 52.0603C86.3783 51.7054 85.8686 51.5089 85.34 51.5089C84.8115 51.5089 84.3018 51.7054 83.9101 52.0603C83.5555 52.4679 83.3602 52.99 83.3602 53.5303C83.3602 54.0705 83.5555 54.5926 83.9101 55.0003Z" fill="#16191C"/>
<path d="M98.71 49.8703C98.9 49.8703 98.99 49.9703 98.99 50.1603V57.3303C99.0075 57.8142 98.917 58.2959 98.725 58.7405C98.533 59.185 98.2443 59.5812 97.88 59.9003C97.0715 60.5897 96.0316 60.9471 94.9701 60.9003C94.0112 60.934 93.0652 60.6721 92.2601 60.1503C91.9163 59.9245 91.6226 59.6305 91.3972 59.2864C91.1718 58.9423 91.0196 58.5556 90.95 58.1503C90.95 57.9503 90.9501 57.8603 91.2201 57.8603H92.9001C92.9714 57.8627 93.0405 57.8857 93.099 57.9265C93.1576 57.9673 93.2031 58.0242 93.2301 58.0903C93.339 58.394 93.5562 58.6468 93.84 58.8003C94.1859 58.9787 94.5709 59.0681 94.96 59.0603C95.1948 59.0731 95.4299 59.0391 95.6513 58.9601C95.8728 58.8811 96.0764 58.7588 96.25 58.6003C96.4087 58.4344 96.5322 58.2382 96.6129 58.0233C96.6937 57.8085 96.7301 57.5796 96.7201 57.3503V56.7203C96.1185 57.1627 95.3864 57.3915 94.64 57.3703C94.1177 57.3893 93.5968 57.3025 93.1088 57.1152C92.6207 56.9279 92.1756 56.6439 91.8001 56.2803C91.0791 55.5344 90.6761 54.5376 90.6761 53.5003C90.6761 52.4629 91.0791 51.4661 91.8001 50.7203C92.1774 50.3598 92.6231 50.0786 93.1109 49.8931C93.5986 49.7076 94.1186 49.6217 94.64 49.6403C95.4081 49.62 96.1598 49.8635 96.77 50.3303V50.1703C96.7655 50.1319 96.7695 50.0931 96.7818 50.0565C96.7941 50.0199 96.8144 49.9865 96.8412 49.9587C96.868 49.931 96.9006 49.9095 96.9368 49.896C96.9729 49.8824 97.0116 49.877 97.0501 49.8803L98.71 49.8703ZM94.8301 55.5903C95.0877 55.5982 95.3439 55.5495 95.5806 55.4476C95.8174 55.3456 96.0288 55.1929 96.2 55.0003C96.5325 54.5709 96.7129 54.0433 96.7129 53.5003C96.7129 52.9572 96.5325 52.4296 96.2 52.0003C96.0294 51.8102 95.8193 51.6598 95.5843 51.5596C95.3494 51.4594 95.0953 51.4118 94.84 51.4203C94.5795 51.4121 94.3202 51.4606 94.0802 51.5625C93.8402 51.6643 93.6252 51.8171 93.45 52.0103C93.0817 52.421 92.888 52.959 92.9101 53.5103C92.892 54.0561 93.0814 54.5885 93.4401 55.0003C93.6156 55.1929 93.8307 55.3453 94.0706 55.4471C94.3105 55.549 94.5695 55.5978 94.8301 55.5903Z" fill="#16191C"/>
<path d="M107.62 56.3203C106.774 57.0141 105.714 57.3934 104.62 57.3934C103.526 57.3934 102.466 57.0141 101.62 56.3203C100.895 55.5627 100.49 54.5542 100.49 53.5053C100.49 52.4563 100.895 51.4479 101.62 50.6903C102.467 49.9982 103.527 49.6201 104.62 49.6201C105.714 49.6201 106.773 49.9982 107.62 50.6903C108.345 51.4462 108.75 52.453 108.75 53.5003C108.75 54.5476 108.345 55.5543 107.62 56.3103V56.3203ZM103.19 55.0003C103.382 55.1826 103.608 55.3252 103.855 55.4196C104.102 55.514 104.366 55.5584 104.63 55.5503C104.893 55.5571 105.154 55.512 105.4 55.4176C105.645 55.3233 105.87 55.1814 106.06 55.0003C106.409 54.5899 106.6 54.0688 106.6 53.5303C106.6 52.9917 106.409 52.4707 106.06 52.0603C105.87 51.8791 105.645 51.7373 105.4 51.6429C105.154 51.5485 104.893 51.5035 104.63 51.5103C104.366 51.5021 104.102 51.5466 103.855 51.641C103.608 51.7354 103.382 51.8779 103.19 52.0603C102.841 52.4707 102.65 52.9917 102.65 53.5303C102.65 54.0688 102.841 54.5899 103.19 55.0003Z" fill="#16191C"/>
<path d="M112.36 48.1703C112.096 48.4016 111.756 48.5292 111.405 48.5292C111.054 48.5292 110.714 48.4016 110.45 48.1703C110.33 48.0572 110.235 47.9208 110.169 47.7694C110.104 47.6181 110.071 47.4551 110.071 47.2903C110.071 47.1255 110.104 46.9624 110.169 46.8111C110.235 46.6598 110.33 46.5234 110.45 46.4103C110.717 46.1847 111.055 46.0609 111.405 46.0609C111.755 46.0609 112.093 46.1847 112.36 46.4103C112.48 46.5234 112.575 46.6598 112.641 46.8111C112.706 46.9624 112.74 47.1255 112.74 47.2903C112.74 47.4551 112.706 47.6181 112.641 47.7694C112.575 47.9208 112.48 48.0572 112.36 48.1703ZM112.57 57.3903C111.976 57.4194 111.388 57.2506 110.9 56.9103C110.7 56.7572 110.539 56.5584 110.431 56.3305C110.323 56.1026 110.271 55.8522 110.28 55.6003V50.1603C110.275 50.121 110.279 50.0812 110.292 50.0438C110.305 50.0064 110.326 49.9724 110.354 49.9444C110.382 49.9165 110.416 49.8953 110.454 49.8824C110.491 49.8696 110.531 49.8654 110.57 49.8703H112.25C112.44 49.8703 112.53 49.9703 112.53 50.1603V54.8803C112.53 55.2603 112.7 55.4503 113.04 55.4503C113.192 55.4557 113.343 55.4389 113.49 55.4003C113.69 55.4003 113.8 55.4603 113.81 55.6403L113.96 56.8903C113.967 56.9267 113.967 56.9643 113.958 57.0004C113.95 57.0366 113.933 57.0705 113.911 57.0999C113.888 57.1292 113.859 57.1534 113.826 57.1707C113.793 57.188 113.757 57.1981 113.72 57.2003C113.349 57.3225 112.961 57.3866 112.57 57.3903Z" fill="#16191C"/>
<path d="M120.14 49.6303C120.665 49.6095 121.188 49.6944 121.68 49.88C122.171 50.0655 122.62 50.3479 123 50.7103C123.707 51.4692 124.1 52.468 124.1 53.5053C124.1 54.5426 123.707 55.5413 123 56.3003C122.622 56.6659 122.173 56.951 121.682 57.1384C121.19 57.3257 120.666 57.4114 120.14 57.3903C119.391 57.4069 118.657 57.1787 118.05 56.7403V60.3503C118.05 60.5403 117.95 60.6303 117.76 60.6303H116.08C116.042 60.6374 116.002 60.6351 115.965 60.6236C115.928 60.6121 115.894 60.5916 115.866 60.5641C115.839 60.5365 115.818 60.5026 115.807 60.4654C115.795 60.4281 115.793 60.3886 115.8 60.3503V52.1503C115.812 52.0701 115.805 51.9882 115.779 51.9113C115.754 51.8343 115.711 51.7644 115.653 51.7071C115.596 51.6497 115.526 51.6066 115.449 51.5811C115.372 51.5556 115.29 51.5485 115.21 51.5603H114.88C114.66 51.5603 114.55 51.4803 114.55 51.3203V50.1403C114.545 50.0673 114.565 49.9947 114.607 49.9346C114.649 49.8746 114.71 49.8307 114.78 49.8103C115.126 49.6845 115.492 49.6235 115.86 49.6303C116.227 49.5978 116.595 49.6756 116.918 49.8538C117.24 50.0319 117.502 50.3023 117.67 50.6303C117.992 50.3044 118.377 50.0477 118.802 49.8758C119.227 49.7038 119.682 49.6203 120.14 49.6303ZM118.58 55.0003C118.758 55.1866 118.973 55.3349 119.21 55.4362C119.447 55.5375 119.702 55.5898 119.96 55.5898C120.218 55.5898 120.473 55.5375 120.71 55.4362C120.948 55.3349 121.162 55.1866 121.34 55.0003C121.716 54.5814 121.913 54.0324 121.89 53.4703C121.916 52.9076 121.718 52.3575 121.34 51.9403C121.162 51.7539 120.948 51.6056 120.71 51.5043C120.473 51.403 120.218 51.3508 119.96 51.3508C119.702 51.3508 119.447 51.403 119.21 51.5043C118.973 51.6056 118.758 51.7539 118.58 51.9403C118.216 52.3649 118.027 52.9116 118.05 53.4703C118.03 54.0285 118.219 54.5742 118.58 55.0003Z" fill="#16191C"/>
<path d="M128.82 57.3903C127.922 57.4272 127.032 57.2124 126.25 56.7703C125.936 56.5812 125.669 56.324 125.468 56.0176C125.267 55.7112 125.138 55.3635 125.09 55.0003C125.09 54.8003 125.16 54.7003 125.38 54.7003H126.85C126.92 54.703 126.988 54.725 127.046 54.7638C127.104 54.8026 127.151 54.8568 127.18 54.9203C127.39 55.4603 127.94 55.7303 128.82 55.7303C129.127 55.7443 129.433 55.6825 129.71 55.5503C129.806 55.507 129.888 55.4386 129.948 55.3523C130.008 55.266 130.043 55.1651 130.05 55.0603C130.05 54.8003 129.89 54.6203 129.57 54.5003C129.19 54.3739 128.798 54.2901 128.4 54.2503C127.929 54.1969 127.461 54.1134 127 54.0003C126.552 53.8988 126.144 53.6655 125.83 53.3303C125.645 53.1024 125.509 52.839 125.43 52.5562C125.351 52.2735 125.331 51.9776 125.371 51.6868C125.412 51.396 125.511 51.1167 125.664 50.8661C125.817 50.6155 126.02 50.3991 126.26 50.2303C126.981 49.7711 127.827 49.5475 128.68 49.5903C129.506 49.5623 130.324 49.7667 131.04 50.1803C131.329 50.3437 131.577 50.5694 131.767 50.841C131.958 51.1126 132.085 51.4232 132.14 51.7503C132.14 51.9503 132.05 52.0503 131.87 52.0503H130.39C130.328 52.054 130.266 52.0387 130.212 52.0066C130.159 51.9745 130.116 51.927 130.09 51.8703C129.991 51.6334 129.805 51.4437 129.57 51.3403C129.305 51.2016 129.009 51.1328 128.71 51.1403C128.417 51.1243 128.125 51.1828 127.86 51.3103C127.767 51.3462 127.687 51.4092 127.63 51.4912C127.573 51.5732 127.541 51.6704 127.54 51.7703C127.546 51.907 127.596 52.0381 127.683 52.1443C127.769 52.2505 127.887 52.3262 128.02 52.3603C128.404 52.505 128.803 52.6056 129.21 52.6603C129.678 52.7218 130.142 52.8086 130.6 52.9203C131.048 53.0217 131.456 53.2551 131.77 53.5903C131.938 53.7749 132.068 53.9911 132.152 54.2262C132.236 54.4614 132.273 54.7109 132.26 54.9603C132.269 55.3059 132.188 55.648 132.025 55.9529C131.862 56.2579 131.622 56.5154 131.33 56.7003C130.583 57.1799 129.707 57.4206 128.82 57.3903Z" fill="#16191C"/>
<path d="M142.83 56.8903C142.836 56.9258 142.834 56.9621 142.826 56.997C142.817 57.0319 142.802 57.0648 142.78 57.0936C142.759 57.1225 142.732 57.1468 142.701 57.1651C142.67 57.1834 142.636 57.1954 142.6 57.2003C142.235 57.3195 141.854 57.3835 141.47 57.3903C141.09 57.4296 140.706 57.3702 140.356 57.2178C140.005 57.0654 139.7 56.8251 139.47 56.5203C138.764 57.1276 137.85 57.4392 136.92 57.3903C136.488 57.4102 136.057 57.3395 135.654 57.1828C135.251 57.026 134.885 56.7868 134.58 56.4803C134.277 56.1591 134.042 55.7801 133.889 55.366C133.736 54.9519 133.669 54.5112 133.69 54.0703V50.1603C133.69 49.9703 133.78 49.8703 133.97 49.8703H135.65C135.84 49.8703 135.93 49.9703 135.93 50.1603V53.7703C135.912 54.22 136.066 54.6599 136.36 55.0003C136.507 55.1562 136.686 55.2788 136.884 55.3599C137.082 55.441 137.296 55.4786 137.51 55.4703C137.729 55.4799 137.948 55.4459 138.154 55.3704C138.36 55.2949 138.549 55.1793 138.71 55.0303C138.862 54.8732 138.981 54.6866 139.058 54.4819C139.136 54.2772 139.17 54.0589 139.16 53.8403V50.1603C139.16 49.9703 139.25 49.8703 139.44 49.8703H141.14C141.33 49.8703 141.42 49.9703 141.42 50.1603V54.8703C141.42 55.2603 141.59 55.4503 141.92 55.4503C142.075 55.4563 142.23 55.4394 142.38 55.4003C142.418 55.3897 142.458 55.3878 142.496 55.3947C142.535 55.4016 142.571 55.4172 142.603 55.4403C142.635 55.4634 142.661 55.4934 142.68 55.528C142.698 55.5627 142.708 55.601 142.71 55.6403L142.83 56.8903Z" fill="#16191C"/>
<path d="M158.72 56.8903C158.729 56.9261 158.73 56.9634 158.723 56.9996C158.715 57.0358 158.7 57.0699 158.678 57.0995C158.656 57.1292 158.628 57.1536 158.595 57.171C158.563 57.1884 158.527 57.1984 158.49 57.2003C158.118 57.3211 157.731 57.3852 157.34 57.3903C156.745 57.4209 156.158 57.252 155.67 56.9103C155.459 56.7639 155.288 56.5677 155.171 56.3392C155.054 56.1107 154.995 55.8569 155 55.6003V53.2503C155.021 52.8018 154.871 52.3622 154.58 52.0203C154.44 51.864 154.267 51.7407 154.073 51.6595C153.879 51.5782 153.67 51.5409 153.46 51.5503C153.271 51.5431 153.083 51.579 152.909 51.6552C152.736 51.7314 152.583 51.846 152.46 51.9903C152.196 52.3254 152.061 52.7441 152.08 53.1703V56.8603C152.08 57.0503 151.99 57.1503 151.8 57.1503H150.11C150.071 57.1551 150.031 57.151 149.994 57.1381C149.956 57.1253 149.922 57.1041 149.894 57.0761C149.866 57.0481 149.845 57.0141 149.832 56.9767C149.819 56.9394 149.815 56.8995 149.82 56.8603V53.2503C149.842 52.8067 149.703 52.3702 149.43 52.0203C149.308 51.8733 149.155 51.755 148.982 51.6737C148.81 51.5925 148.621 51.5503 148.43 51.5503C148.226 51.542 148.023 51.577 147.833 51.6528C147.643 51.7286 147.472 51.8436 147.33 51.9903C147.044 52.3147 146.897 52.7384 146.92 53.1703V56.8603C146.925 56.8995 146.921 56.9394 146.908 56.9767C146.895 57.0141 146.874 57.0481 146.846 57.0761C146.818 57.1041 146.784 57.1253 146.747 57.1381C146.709 57.151 146.669 57.1551 146.63 57.1503H145C144.81 57.1503 144.72 57.0503 144.72 56.8603V52.1503C144.732 52.0701 144.725 51.9882 144.699 51.9113C144.674 51.8343 144.631 51.7644 144.573 51.7071C144.516 51.6497 144.446 51.6066 144.369 51.5811C144.292 51.5556 144.21 51.5485 144.13 51.5603H143.8C143.58 51.5603 143.47 51.4803 143.47 51.3203V50.1403C143.465 50.0672 143.485 49.9947 143.527 49.9346C143.569 49.8746 143.63 49.8307 143.7 49.8103C144.046 49.6845 144.412 49.6235 144.78 49.6303C145.133 49.6002 145.488 49.6706 145.803 49.8334C146.118 49.9962 146.38 50.2447 146.56 50.5503C146.897 50.2305 147.297 49.9838 147.734 49.8255C148.171 49.6672 148.636 49.6007 149.1 49.6303C149.551 49.6083 150 49.6928 150.412 49.877C150.824 50.0611 151.186 50.3398 151.47 50.6903C151.801 50.3306 152.208 50.0489 152.661 49.8656C153.114 49.6823 153.602 49.6019 154.09 49.6303C154.527 49.6098 154.963 49.6802 155.37 49.8368C155.778 49.9934 156.149 50.233 156.46 50.5403C156.764 50.8607 156.999 51.2396 157.152 51.6539C157.305 52.0682 157.373 52.5092 157.35 52.9503V54.8803C157.35 55.2603 157.52 55.4503 157.84 55.4503C157.995 55.4575 158.15 55.4406 158.3 55.4003C158.507 55.4003 158.617 55.4803 158.63 55.6403L158.72 56.8903Z" fill="#16191C"/>
<path d="M41.46 48.5703C42.1978 45.6049 43.9065 42.9717 46.314 41.0898C48.7214 39.2079 51.6893 38.1855 54.745 38.1855C57.8008 38.1855 60.7687 39.2079 63.1761 41.0898C65.5836 42.9717 67.2923 45.6049 68.03 48.5703H66.8301C64.8057 48.5405 62.8229 49.1454 61.16 50.3003C61.0641 50.3698 60.9639 50.4332 60.8601 50.4903H60.7201C60.6162 50.4332 60.516 50.3698 60.42 50.3003C58.7424 49.1722 56.7667 48.5697 54.745 48.5697C52.7234 48.5697 50.7477 49.1722 49.07 50.3003C48.9741 50.3698 48.8739 50.4332 48.7701 50.4903H48.6301C48.5262 50.4332 48.426 50.3698 48.3301 50.3003C46.6672 49.1454 44.6844 48.5405 42.66 48.5703H41.46ZM64.67 54.8403C65.2861 54.3605 66.0495 54.1096 66.8301 54.1303H68.44V50.9203H66.8301C65.4553 50.9036 64.1119 51.3315 63 52.1403C62.3744 52.6016 61.6174 52.8504 60.84 52.8504C60.0627 52.8504 59.3057 52.6016 58.68 52.1403C57.54 51.3466 56.1842 50.9212 54.795 50.9212C53.4059 50.9212 52.0501 51.3466 50.91 52.1403C50.2844 52.6016 49.5274 52.8504 48.75 52.8504C47.9727 52.8504 47.2157 52.6016 46.59 52.1403C45.4644 51.3212 44.1018 50.8927 42.71 50.9203H41.05V54.1303H42.66C43.4406 54.1096 44.204 54.3605 44.82 54.8403C45.9581 55.6344 47.3123 56.0602 48.7001 56.0602C50.0878 56.0602 51.442 55.6344 52.5801 54.8403C53.1968 54.362 53.9598 54.1112 54.7401 54.1303C55.5208 54.1079 56.2848 54.359 56.9001 54.8403C58.0401 55.6339 59.3959 56.0593 60.785 56.0593C62.1742 56.0593 63.53 55.6339 64.67 54.8403ZM64.67 60.5803C65.2861 60.1005 66.0495 59.8496 66.8301 59.8703H68.44V56.6603H66.8301C65.4553 56.6436 64.1119 57.0715 63 57.8803C62.3744 58.3416 61.6174 58.5904 60.84 58.5904C60.0627 58.5904 59.3057 58.3416 58.68 57.8803C57.54 57.0866 56.1842 56.6612 54.795 56.6612C53.4059 56.6612 52.0501 57.0866 50.91 57.8803C50.2844 58.3416 49.5274 58.5904 48.75 58.5904C47.9727 58.5904 47.2157 58.3416 46.59 57.8803C45.4644 57.0612 44.1018 56.6327 42.71 56.6603H41.05V59.8703H42.66C43.4406 59.8496 44.204 60.1005 44.82 60.5803C45.9581 61.3744 47.3123 61.8002 48.7001 61.8002C50.0878 61.8002 51.442 61.3744 52.5801 60.5803C53.1968 60.102 53.9598 59.8512 54.7401 59.8703C55.5208 59.8479 56.2848 60.099 56.9001 60.5803C58.0401 61.3739 59.3959 61.7993 60.785 61.7993C62.1742 61.7993 63.53 61.3739 64.67 60.5803Z" fill="#16191C"/>
</svg>
